L4_Test_Standvirt    L4_TEST.START    0.0   0.0    1968.3434    1892.9021    1968.3434    1892.9021
L4_Test_Standvirt    L4_TEST.END    65.0    65.0    1988.3434    1862.9021    1988.3434    1862.9021
L4Zvirt    L4_Z.START    0.0    0.0    1968.3434    1892.9021    1968.3434    1892.9021
L4Zvirt    L4_Z.END    12.0    12.0    2003.9500    1862.9021    2003.9500   1862.9021